[npc]
Battlefrontier - battletower lady - lvl 50
down
335
19
5
NULL
0
-1
0,1
false
false
false
[/npc]
[npc]
Battlefrontier - battletower lady - any lvl
down
363
15
5
NULL
0
-1
0,2
false
false
false
[/npc]
[npc]
Battlefrontier - battletower lady - any lvl
down
363
11
5
NULL
0
-1
0,2
false
false
false
[/npc]
[npc]
Battlefrontier - battletower lady - lvl 50
down
335
7
5
NULL
0
-1
0,1
false
false
false
[/npc]
[npc]
NULL
down
0
23
1
NULL
0
-1
2
false
true
false
[/npc]
[warp]
14
10
75
15
29
26
0
[/warp]
[warp]
13
10
75
15
29
26
0
[/warp]