[npc]
Cooltrainer Naomi
down
265
14
6
Persian,42,Ponyta,42,Rapidash,42,Vulpix,42,Ninetales,42
5
-1
0
false
false
false
[/npc]
[npc]
Cooltrainer Rolando
down
122
5
2
Raticate,42,Charmeleon,42,Charizard,42,Ivysaur,42,Wartortle,42
5
-1
1
false
false
false
[/npc]
[warp]
11
21
5
29
2
-2
0
[/warp]
[warp]
3
2
1
10
-44
-16
0
[/warp]
[hmobject]
STRENGTH_BOULDER
4
12
[/hmobject]