[npc]
Teacher
down
343
7
3
NULL
0
-1
0,1
false
false
false
[/npc]
[npc]
Schoolgirl
up
340
5
5
NULL
0
-1
2
false
false
false
[/npc]
[npc]
NULL
down
0
5
4
NULL
0
-1
3,4,5,6,7,8,9,10,11,12,13,14,15,16
false
false
false
[/npc]
[npc]
NULL
down
0
5
1
NULL
0
-1
17,18,19,20,21,22,23,24
false
false
false
[/npc]
[npc]
NULL
down
0
6
1
NULL
0
-1
17,25,26,27,28,29
false
false
false
[/npc]
[warp]
5
8
25
19
3
-1
0
[/warp]
