[warp]
5
8
9
31
3
-3
0
[/warp]
[npc]
Pewter City citizen
right
332
4
3
NULL
0
-1
0,1
FALSE
FALSE
FALSE
[/npc]
[npc]
Grandson
left
261
6
3
NULL
0
-1
2,3,4
FALSE
FALSE
FALSE
[/npc]

