[npc]
PN Staff
up
278
1
13
NULL
0
-1
0,1
false
false
false
[/npc]
[npc]
PN Staff
down
271
3
9
NULL
0
-1
2
false
false
false
[/npc]
[warp]
12
19
30
12
12
15
0
[/warp]
[warp]
13
2
11
2
-50
-26
0
[/warp]
[warp]
2
1
30
4
12
15
0
[/warp]
[warp]
5
2
2
2
-50
-26
0
[/warp]